{
    "/admin/js/app.js": "/admin/js/app.js",
    "/js/app.js": "/js/app.js",
    "/css/app.css": "/css/app.css",
    "/admin/css/app.css": "/admin/css/app.css",
    "/css/style.css": "/css/style.css"
}
